Camera Trap Data Analysis
…
names(cam)

##  [1] "Project"                   "Subproject"               
##  [3] "Treatment"                 "Deployment Name"          
##  [5] "ID Type"                   "Deployment ID"            
##  [7] "Sequence ID"               "Begin Time"               
##  [9] "End Time"                  "Species Name"             
## [11] "Common Name"               "Age"                      
## [13] "Sex"                       "Individually Identifiable"
## [15] "Count"                     "Actual Lat"               
## [17] "Actual Lon"                "Fuzzed"

cam

## # A tibble: 8,683 x 18
##    Project Subproject Treatment `Deployment Nam… `ID Type` `Deployment ID`
##    <chr>   <chr>      <lgl>     <chr>            <chr>     <list>         
##  1 Okaloo… Florida B… NA        SQ66_Cam393      Research… <dbl [1]>      
##  2 Okaloo… Florida B… NA        SQ66_Cam393      Research… <dbl [1]>      
##  3 Okaloo… Florida B… NA        SQ66_Cam393      Research… <dbl [1]>      
##  4 Okaloo… Florida B… NA        SQ66_Cam393      Research… <dbl [1]>      
##  5 Okaloo… Florida U… NA        SQ122_Cam279     Research… <dbl [1]>      
##  6 Okaloo… Florida U… NA        SQ122_Cam279     Research… <dbl [1]>      
##  7 Okaloo… Florida U… NA        SQ122_Cam279     Research… <dbl [1]>      
##  8 Okaloo… Florida U… NA        SQ122_Cam279     Research… <dbl [1]>      
##  9 Okaloo… Florida U… NA        SQ122_Cam279     Research… <dbl [1]>      
## 10 Okaloo… Florida U… NA        SQ122_Cam279     Research… <dbl [1]>      
## # … with 8,673 more rows, and 12 more variables: `Sequence ID` <chr>, `Begin
## #   Time` <list>, `End Time` <list>, `Species Name` <chr>, `Common Name` <chr>,
## #   Age <chr>, Sex <chr>, `Individually Identifiable` <chr>, Count <dbl>,
## #   `Actual Lat` <dbl>, `Actual Lon` <dbl>, Fuzzed <lgl>
…
#We need to clean up names and get rid of spaces. These search for spaces in the given column names and replace them with periods
cam$Species.Name <- str_replace_all(cam$Species.Name, " ", ".")
cam$Common.Name <- str_replace_all(cam$Common.Name, " ", ".")
cam$Subproject <- str_replace_all(cam$Subproject, " ", ".")
cam$Subproject <- str_replace_all(cam$Subproject, "/", ".") #there is one subproject name that has a /. Let's just change it to a period for consistency's sake.

I want to start summarizing some of the data into counts of each species type per subproject (or forest type). I only need a few of the columns, so I’m going to select those first so that I can count up the number of species found in each subproject. This will give a table with species as rows and Subprojects as columns. I have set it up this way because the package that we’ll use to analyze diversity iNEXT requires this format.

speciesCount <- cam %>% dplyr::select(Common.Name, Count, Subproject) %>% 
  group_by(Common.Name, Subproject) %>% #Here I group the data by species and the subproject
  summarize(totalCount = sum(Count)) %>% #This now gives the sum of the count of each species per subproject
  spread(Subproject, totalCount) #Now I need to change the orientation so that species are rows and subprojects are columns. This pivots the table to do that. More explanation here: https://rpubs.com/bradleyboehmke/data_wrangling
speciesCount

## # A tibble: 40 x 6
## # Groups:   Common.Name [40]
##    Common.Name Florida.Bottoml… Florida.Coastal… Florida.Develop…
##    <chr>                  <dbl>            <dbl>            <dbl>
##  1 American.B…               30               NA                1
##  2 Animal.Not…               NA                2               NA
##  3 Bobcat                    20                8                1
##  4 Calibratio…               10                2               NA
##  5 Camera.Mis…              418                1               NA
##  6 Camera.Tra…              402               52               29
##  7 Coyote                    44               31                8
##  8 Domestic.C…               NA               22               18
##  9 Domestic.D…               11               12               37
## 10 Domestic.H…                1               NA               NA
## # … with 30 more rows, and 2 more variables:
## #   Florida.Upland.Hardwood.Forest <dbl>, Florida.Upland.Pine.Sandhill <dbl>
…
