…
We'll look at some published data from 142 different mammal species. These data were collated in a paper by José Iriarte-Díaz (Differential scaling of locomotor performance in small and large terrestrial mammals: https://jeb.biologists.org/content/205/18/2897). Iriarte-Díaz was interested in how speed scales with mass across many different locomotor modes in mammals, but we'll use the data just to see what the possibilities are.  
  
For this exercise we'll connect directly to a public Google Sheet stored on Dr. O'Mara's Drive and read this into R using `googlesheets4`.


```r
library(tidyverse)
library(googlesheets4)
gs4_deauth() #This is important to set. It tells the package that you don't need to log in.
runners <- read_sheet("https://docs.google.com/spreadsheets/d/1C-mNVFU-0pHjr4tZasLxv7Dqs-sFJppf49I8sLcdt5o/edit?usp=sharing")
runners
```

```
## # A tibble: 142 x 5
##    species             order        bodyMass.kg bodyLength.m maxSpeed.bodyLengt…
##    <chr>               <chr>              <dbl>        <dbl>               <dbl>
##  1 Loxodonta africana  Proboscidea         6000         6.75                1.4 
##  2 Elephas maximus     Proboscidea         4000         5.95                1.18
##  3 Ceratotherium simum Perissodact…        2000         3.78                1.79
##  4 Diceros bicornis    Perissodact…        1200         3.38                3.6 
##  5 Equus caballus      Perissodact…         350         2.5                 7.56
##  6 Equus zebra         Perissodact…         300         2.35                7.35
##  7 Tapirus bairdii     Perissodact…         250         2.08                5.18
##  8 Equus burchelli     Perissodact…         235         2.32                8.16
##  9 Equus hemionus      Perissodact…         200         2.25                8.4 
## 10 Hippopotamus amphi… Artiodactyla        3800         3.98                1.7 
## # … with 132 more rows
```
…
